module gitlab.com/pbohun/netfs

go 1.22.1

require (
	github.com/glebarez/go-sqlite v1.22.0
	gitlab.com/pbohun/troposphere v0.0.0-20240430003703-e946794c3bdd
)

require (
	github.com/dustin/go-humanize v1.0.1 // indirect
	github.com/google/uuid v1.6.0 // indirect
	github.com/mattn/go-isatty v0.0.20 // indirect
	github.com/ncruces/go-strftime v0.1.9 // indirect
	github.com/remyoudompheng/bigfft v0.0.0-20230129092748-24d4a6f8daec // indirect
	golang.org/x/sys v0.19.0 // indirect
	modernc.org/libc v1.50.4 // indirect
	modernc.org/mathutil v1.6.0 // indirect
	modernc.org/memory v1.8.0 // indirect
	modernc.org/sqlite v1.29.8 // indirect
)
